…
    ## `summarise()` has grouped output by 'quartile', 'item_type'. You can override using the `.groups` argument.

``` r
# inspect the results
data_item_type_summary
```

    ## # A tibble: 38 x 6
    ## # Rowwise: 
    ##    quartile item_type      item_type_acc number_responses left_number_range
    ##       <int> <chr>                  <dbl>            <int> <chr>            
    ##  1        1 Inserting_zero          0.41              616 decade           
    ##  2        1 Inserting_zero          0.37               59 hundred          
    ##  3        1 Neither                 0.5                88 hundred          
    ##  4        1 Neither                 0.73              101 single           
    ##  5        1 Neither                 0.58              101 single           
    ##  6        1 Neither                 0.44              176 teen             
    ##  7        1 Transposition           0.38              209 hundred          
    ##  8        1 Transposition           0.45               65 thousand         
    ##  9        2 Inserting_zero          0.64              534 decade           
    ## 10        2 Inserting_zero          0.45               71 hundred          
    ## # … with 28 more rows, and 1 more variable: right_number_range <chr>
…
